/home/deployer/.rbenv/versions/2.1.2/bin/ruby extconf.rb
creating Makefile

make "DESTDIR=" clean

make "DESTDIR="
make: Nothing to be done for `all'.

make "DESTDIR=" install
installing default libraries
