/home/deployer/.rbenv/versions/2.1.2/bin/ruby extconf.rb
creating Makefile

make "DESTDIR=" clean

make "DESTDIR="
compiling crypt_gensalt.c
compiling crypt.c
compiling crypt_blowfish.c
compiling bcrypt_ext.c
compiling wrapper.c
linking shared-object bcrypt_ext.so

make "DESTDIR=" install
/usr/bin/install -c -m 0755 bcrypt_ext.so ./.gem.20160620-23982-1frsvoz
installing default bcrypt_ext libraries
