/home/deployer/.rbenv/versions/2.1.2/bin/ruby extconf.rb
checking for mmap() in sys/mman.h... yes
checking for munmap() in sys/mman.h... yes
checking for mremap() in sys/mman.h... yes
checking for linux/tcp.h... yes
checking for getpagesize() in unistd.h... yes
checking for rb_thread_blocking_region()... yes
checking for rb_thread_io_blocking_region()... yes
checking for GCC 4+ atomic builtins... yes
creating Makefile

make "DESTDIR=" clean

make "DESTDIR="
compiling raindrops.c
compiling linux_inet_diag.c
compiling linux_tcp_info.c
linking shared-object raindrops_ext.so

make "DESTDIR=" install
/usr/bin/install -c -m 0755 raindrops_ext.so ./.gem.20160620-23982-1ccdec4
installing default raindrops_ext libraries
