/home/deployer/.rbenv/versions/2.1.2/bin/ruby extconf.rb
checking for CLOCK_MONOTONIC in time.h... yes
checking for clockid_t in time.h... yes
checking for clock_gettime() in -lrt... yes
checking for t_open() in -lnsl... no
checking for socket() in -lsocket... no
checking for poll() in poll.h... yes
checking for getaddrinfo() in sys/types.h,sys/socket.h,netdb.h... yes
checking for getnameinfo() in sys/types.h,sys/socket.h,netdb.h... yes
checking for struct sockaddr_storage in sys/types.h,sys/socket.h... yes
checking for accept4() in sys/socket.h... yes
checking for sys/select.h... yes
checking for writev() in sys/uio.h... yes
checking for ruby/io.h... yes
checking for rb_io_t.fd in ruby.h,ruby/io.h... yes
checking for rb_io_t.mode in ruby.h,ruby/io.h... yes
checking for rb_io_t.pathv in ruby.h,ruby/io.h... yes
checking for struct RFile in ruby.h,ruby/io.h... yes
checking size of struct RFile in ruby.h,ruby/io.h... 24
checking for struct RObject... yes
checking size of struct RObject... 40
checking size of int... 4
checking for rb_io_ascii8bit_binmode()... yes
checking for rb_update_max_fd()... yes
checking for rb_fd_fix_cloexec()... yes
checking for rb_cloexec_open()... yes
checking for ruby/thread.h... yes
checking for rb_thread_call_without_gvl() in ruby/thread.h... yes
checking for rb_thread_blocking_region()... yes
checking for rb_thread_io_blocking_region()... yes
checking for rb_str_set_len()... yes
checking for rb_hash_clear() in ruby.h... yes
checking for rb_time_interval()... yes
checking for rb_wait_for_single_fd()... yes
checking for rb_str_subseq()... yes
checking for rb_ary_subseq()... yes
creating Makefile

make "DESTDIR=" clean

make "DESTDIR="
compiling kgio_ext.c
compiling connect.c
compiling write.c
compiling wait.c
compiling tryopen.c
compiling writev.c
compiling read.c
compiling accept.c
compiling poll.c
linking shared-object kgio_ext.so

make "DESTDIR=" install
/usr/bin/install -c -m 0755 kgio_ext.so ./.gem.20160620-23982-12dnmfv
installing default kgio_ext libraries
