/home/deployer/.rbenv/versions/2.1.2/bin/ruby extconf.rb
checking for SIZEOF_OFF_T in ruby.h... yes
checking for SIZEOF_SIZE_T in ruby.h... yes
checking for SIZEOF_LONG in ruby.h... yes
checking for rb_str_set_len() in ruby.h... yes
checking for rb_hash_clear() in ruby.h... yes
checking for gmtime_r() in time.h... yes
creating Makefile

make "DESTDIR=" clean

make "DESTDIR="
compiling httpdate.c
compiling unicorn_http.c
linking shared-object unicorn_http.so

make "DESTDIR=" install
/usr/bin/install -c -m 0755 unicorn_http.so ./.gem.20160620-23982-11irg5w
installing default unicorn_http libraries
